CRNOMELJ - DOBLICE,Dolenjska,Jugovzhodna Slovenija,Občina Črnomelj,5.854,mesto
Malkovec,Dolenjska,Posavska regija,Občina Sevnica,144,naselje
VOJSKO,Primorska,Goriška regija,Občina Idrija,197,naselje
Lesce,Gorenjska,Gorenjska regija,Občina Radovljica,2.778,naselje
GROSUPLJE,Dolenjska,Osrednjeslovenska regija,Občina Grosuplje,7.625,Ljubljane
Nova_Gorica,Primorska,Goriška regija,Občina Nova Gorica,13.491,mesto
LJUBLJANA - BEZIGRAD,Gorenjska,Osrednjeslovenska regija,Mestna občina Ljubljana,282.994,Slovenije
MARIBOR - TABOR,Štajerska,Podravska regija,Občina Maribor,95.171,mesto
RATECE,Gorenjska,Gorenjska regija,Občina Kranjska Gora,639,vas
Lendava,Prekmurje,Pomurska regija,Občina Lendava,3.395,mesto
Ratece,Gorenjska,Gorenjska regija,Občina Kranjska Gora,639,vas
BOHINJSKA CESNJICA,Gorenjska,Gorenjska regija,Občina Bohinj,377,naselje
SLOVENSKE KONJICE,Štajerska,Savinjska regija,Občina Slovenske Konjice,4.923,mesto
Koper,Primorska,Obalno - kraška regija,Občina Koper,23.726,Istre
STARSE,Štajerska,Podravska regija,Občina Starše,726,naselje
